<?xml version="1.0" encoding="UTF-8" standalone="no"?>
<svg
   xmlns:dc="http://purl.org/dc/elements/1.1/"
   xmlns:cc="http://creativecommons.org/ns#"
   xmlns:rdf="http://www.w3.org/1999/02/22-rdf-syntax-ns#"
   xmlns:svg="http://www.w3.org/2000/svg"
   xmlns="http://www.w3.org/2000/svg"
   version="1.1"
   id="svg2"
   viewBox="0 0 744.09448819 1052.3622047"
   height="297mm"
   width="210mm">
  <defs
     id="defs4" />
  <metadata
     id="metadata7">
    <rdf:RDF>
      <cc:Work
         rdf:about="">
        <dc:format>image/svg+xml</dc:format>
        <dc:type
           rdf:resource="http://purl.org/dc/dcmitype/StillImage" />
        <dc:title></dc:title>
      </cc:Work>
    </rdf:RDF>
  </metadata>
  <g
     id="layer1">
    <g
       id="g4528">
      <g
         id="happy">
        <path
           id="path-2_46_-2"
           style="fill:#ff0000"
           d="m -1006.726,1361.6265 -5.398,0 c -6.895,0 -12.296,-5.312 -12.296,-12.094 0,-0.829 0.672,-1.5 1.5,-1.5 0.829,0 1.5,0.671 1.5,1.5 0,5.1 4.083,9.095 9.296,9.095 l 5.398,0 c 5.213,0 9.29599,-3.907 9.29599,-8.894 0,-0.829 0.671,-1.5 1.5,-1.5 0.829,0 1.5,0.671 1.5,1.5 0,6.67 -5.401,11.893 -12.29599,11.893 z" />
        <path
           id="path-3_46_-2"
           style="fill:#ff0000"
           d="m -1016.468,1336.6745 c -0.383,0 -0.767,-0.146 -1.06,-0.439 -1.422,-1.421 -3.774,-1.472 -5.135,-0.11 -0.586,0.586 -1.536,0.586 -2.122,0 -0.586,-0.585 -0.586,-1.535 0,-2.12 2.513,-2.513 6.807,-2.462 9.378,0.109 0.586,0.585 0.586,1.535 0,2.121 -0.293,0.293 -0.677,0.439 -1.061,0.439 z" />
        <path
           id="path-4_46_-8"
           style="fill:#ff0000"
           d="m -996.06301,1336.6745 c -0.384,0 -0.768,-0.146 -1.061,-0.439 -1.42,-1.421 -3.77299,-1.472 -5.13499,-0.11 -0.586,0.586 -1.535,0.586 -2.121,0 -0.586,-0.585 -0.586,-1.535 0,-2.12 2.512,-2.513 6.80599,-2.462 9.37699,0.109 0.586,0.585 0.586,1.535 0,2.121 -0.293,0.293 -0.677,0.439 -1.06,0.439 z" />
        <path
           id="path-5_46_-0"
           style="fill:#ff0000"
           d="m -1010.618,1376.1505 c -17.174,0 -31.147,-13.971 -31.147,-31.143 0,-17.172 13.973,-31.143 31.147,-31.143 17.17499,0 31.14699,13.971 31.14699,31.143 0,17.172 -13.972,31.143 -31.14699,31.143 z m 0,-59.286 c -15.52,0 -28.147,12.624 -28.147,28.143 0,15.519 12.627,28.144 28.147,28.144 15.52099,0 28.14699,-12.625 28.14699,-28.144 0,-15.519 -12.626,-28.143 -28.14699,-28.143 z" />
      </g>
      <g
         id="sad">
        <path
           id="path-2_21_-9"
           style="fill:#ff0000"
           d="m -922.91023,1337.5226 c 0,2.01 -1.63,3.639 -3.64,3.639 -2.01,0 -3.64,-1.629 -3.64,-3.639 0,-2.01 1.63,-3.639 3.64,-3.639 2.01,0 3.64,1.629 3.64,3.639 z" />
        <path
           id="path-3_21_-5"
           style="fill:#ff0000"
           d="m -943.84023,1337.5226 c 0,2.01 -1.629,3.639 -3.639,3.639 -2.011,0 -3.64,-1.629 -3.64,-3.639 0,-2.01 1.629,-3.639 3.64,-3.639 2.01,0 3.639,1.629 3.639,3.639 z" />
        <path
           id="path-4_21_-8"
           style="fill:#ff0000"
           d="m -949.35023,1364.7246 c -0.829,0 -1.5,-0.672 -1.5,-1.5 0,-6.473 5.209,-11.739 11.611,-11.739 l 5.055,0 c 6.403,0 11.611,5.237 11.611,11.674 0,0.829 -0.671,1.5 -1.5,1.5 -0.829,0 -1.5,-0.671 -1.5,-1.5 0,-4.783 -3.863,-8.674 -8.611,-8.674 l -5.055,0 c -4.748,0 -8.611,3.92 -8.611,8.739 0,0.828 -0.671,1.5 -1.5,1.5 z" />
        <path
           id="path-5_21_-9"
           style="fill:#ff0000"
           d="m -936.96823,1377.3926 c -17.418,0 -31.589,-14.169 -31.589,-31.586 0,-17.416 14.171,-31.585 31.589,-31.585 17.419,0 31.59,14.169 31.59,31.585 0,17.417 -14.171,31.586 -31.59,31.586 z m 0,-60.171 c -15.764,0 -28.589,12.823 -28.589,28.585 0,15.763 12.825,28.587 28.589,28.587 15.765,0 28.59,-12.824 28.59,-28.587 0,-15.762 -12.825,-28.585 -28.59,-28.585 z" />
      </g>
      <g
         id="confused">
        <path
           id="path-2-5"
           style="fill:#ff0000"
           d="m -850.0858,1360.1724 c -2.366,0 -4.631,-1.153 -6.743,-3.433 -1.706,-1.842 -3.586,-2.802 -5.589,-2.852 -3.694,-0.114 -6.775,2.873 -6.805,2.903 -0.591,0.579 -1.54,0.569 -2.119,-0.02 -0.58,-0.59 -0.575,-1.536 0.014,-2.117 0.159,-0.158 3.953,-3.842 8.958,-3.765 2.853,0.063 5.458,1.346 7.742,3.813 1.641,1.772 3.306,2.593 4.926,2.454 3.121,-0.273 5.472,-3.874 5.495,-3.911 0.449,-0.695 1.375,-0.9 2.072,-0.453 0.696,0.446 0.901,1.37 0.458,2.067 -0.127,0.199 -3.149,4.869 -7.744,5.284 -0.222,0.02 -0.444,0.03 -0.665,0.03 z" />
        <path
           id="path-3-9"
           style="fill:#ff0000"
           d="m -844.5178,1336.4874 c 0,1.981 -1.606,3.586 -3.586,3.586 -1.982,0 -3.587,-1.605 -3.587,-3.586 0,-1.98 1.605,-3.585 3.587,-3.585 1.98,0 3.586,1.605 3.586,3.585 z" />
        <path
           id="path-4-6"
           style="fill:#ff0000"
           d="m -865.1388,1336.4874 c 0,1.981 -1.606,3.586 -3.587,3.586 -1.981,0 -3.586,-1.605 -3.586,-3.586 0,-1.98 1.605,-3.585 3.586,-3.585 1.981,0 3.587,1.605 3.587,3.585 z" />
        <path
           id="path-5-0"
           style="fill:#ff0000"
           d="m -858.3688,1375.7934 c -17.175,0 -31.147,-13.971 -31.147,-31.143 0,-17.172 13.972,-31.143 31.147,-31.143 17.175,0 31.148,13.971 31.148,31.143 0,17.172 -13.973,31.143 -31.148,31.143 z m 0,-59.286 c -15.52,0 -28.147,12.624 -28.147,28.143 0,15.519 12.627,28.144 28.147,28.144 15.521,0 28.148,-12.625 28.148,-28.144 0,-15.519 -12.627,-28.143 -28.148,-28.143 z" />
      </g>
    </g>
  </g>
</svg>
